3 Differential Equations in R | Intermediate R
…
This is confusing. Let’s clean it up.

SEIR_Population <-
  sol %>%
  as.data.frame() %>%
  janitor::clean_names() %>%
  rename(S = x1, E = x2, I = x3) %>%
  as_tibble() %>%
  mutate(R = 1 - rowSums(.[2:4])) %>%
  mutate(across(.cols = S:R, .fns = ~ . * 10000))
  
SEIR_Population

## # A tibble: 366 x 5
##     time     S     E     I     R
##    <dbl> <dbl> <dbl> <dbl> <dbl>
##  1     0 9890  100    10    0   
##  2     1 9887.  87.9  24.3  1.24
##  3     2 9881.  79.9  36.1  3.42
##  4     3 9872.  75.2  46.0  6.36
##  5     4 9862.  72.8  54.7  9.97
##  6     5 9851.  72.3  62.6 14.2 
##  7     6 9838.  73.3  70.0 18.9 
##  8     7 9823.  75.4  77.1 24.2 
##  9     8 9807.  78.4  84.2 29.9 
## 10     9 9790.  82.2  91.3 36.2 
## # ... with 356 more rows
…
